<svg xmlns="http://www.w3.org/2000/svg" width="249.656" height="65.999" viewBox="0 0 249.656 65.999">
  <g id="Logo" transform="translate(0 0)">
    <g id="Group_6902" data-name="Group 6902">
      <path id="Path_14" data-name="Path 14" d="M161.877,44.837l-7.746,1.131-10.4,4.626a3.631,3.631,0,1,0,2.952,6.634l14.856-6.61a18.6,18.6,0,0,0,.333-5.78" transform="translate(-40.904 -12.954)" fill="#ff9327"/>
      <path id="Path_15" data-name="Path 15" d="M134.368,73.783l.08,0A36,36,0,0,0,159.2,65.34a31.132,31.132,0,0,0,11.2-22.659,30.326,30.326,0,0,0-2.316-12.847,4.538,4.538,0,0,0-4.848-2.752L137.078,30.9a4.539,4.539,0,0,0,.494,9.027,4.593,4.593,0,0,0,.816-.045l22.384-3.267a21.283,21.283,0,0,1,.557,5.726,22.152,22.152,0,0,1-8.019,16.094,26.945,26.945,0,0,1-18.542,6.28h-.07a4.539,4.539,0,0,0-.331,9.071" transform="translate(-37.558 -7.81)" fill="#092321"/>
      <path id="Path_16" data-name="Path 16" d="M165.071,4.762A7.379,7.379,0,1,0,174.588.483a7.379,7.379,0,0,0-9.517,4.279" transform="translate(-47.551 0)" fill="#ff9327"/>
      <path id="Path_17" data-name="Path 17" d="M15.9,31.861c5.365,0,9.179,2.457,11.119,5.624V32.379H38.077V68.451H27.022V63.345c-2,3.167-5.819,5.624-11.184,5.624C7.046,68.969,0,61.728,0,50.35S7.046,31.861,15.9,31.861m3.232,9.632c-4.137,0-7.887,3.1-7.887,8.857s3.75,8.986,7.887,8.986c4.2,0,7.887-3.168,7.887-8.921s-3.686-8.921-7.887-8.921" transform="translate(0 -9.205)" fill="#092321"/>
      <path id="Path_18" data-name="Path 18" d="M86.988,27.291c8.921,0,15.9,7.111,15.9,18.489S95.845,64.4,86.988,64.4c-5.3,0-9.115-2.393-11.119-5.56v5.042H64.814V16.043H75.869V32.915c2-3.233,5.947-5.624,11.119-5.624m-3.3,9.632c-4.137,0-7.887,3.167-7.887,8.921s3.75,8.921,7.887,8.921c4.2,0,7.952-3.233,7.952-8.986s-3.75-8.857-7.952-8.857" transform="translate(-18.725 -4.635)" fill="#092321"/>
      <path id="Path_19" data-name="Path 19" d="M238.58,68.843H227.525V63.93a13.144,13.144,0,0,1-10.924,5.3c-8.34,0-13.964-5.754-13.964-15.387V32.77h10.99V52.358c0,4.914,2.78,7.629,6.918,7.629,4.267,0,6.982-2.715,6.982-7.629V32.77H238.58Z" transform="translate(-58.543 -9.468)" fill="#092321"/>
      <path id="Path_20" data-name="Path 20" d="M275.416,69.232H264.361V33.159h11.055v6.012a13.447,13.447,0,0,1,11.313-6.4v11.7h-3.038c-5.237,0-8.275,1.81-8.275,8.016Z" transform="translate(-76.376 -9.468)" fill="#092321"/>
      <path id="Path_21" data-name="Path 21" d="M318.408,68.969c-10.6,0-18.23-7.112-18.23-18.554s7.5-18.554,18.23-18.554c10.537,0,17.971,6.982,17.971,17.972a28.065,28.065,0,0,1-.193,3.233H311.168c.388,4.719,3.3,6.917,6.853,6.917a5.879,5.879,0,0,0,5.753-3.491H335.54c-1.746,7.046-8.146,12.477-17.132,12.477m-7.176-22.045h13.834c0-3.944-3.1-6.206-6.788-6.206-3.62,0-6.4,2.2-7.046,6.206" transform="translate(-86.724 -9.205)" fill="#092321"/>
    </g>
  </g>
</svg>
